Data Story 1: IIJA Funding & Biden Administration Analysis
…
To facilitate analysis, new features are created, such as political allegiance based on electoral votes and per capita funding calculations. These transformations help assess whether funding allocation is influenced by state population size or political leanings.

Data Joining

The IIJA funding data is merged with electoral and population datasets to create a unified dataset for analysis. Ensuring correct state name matching and handling inconsistencies ensures accurate cross-referencing across sources.

Code

# Joining the data sets 
my_data <- elect%>%
  inner_join(usa_state_territory_pop2020, by = "State_Territory") %>%
  inner_join(iija_funding, by = "State_Territory")
my_data

# A tibble: 51 × 5
   State State_Territory      Allegiance Total_Population funding_in_billions
   <chr> <chr>                <chr>                 <dbl>               <dbl>
 1 AL    Alabama              Trump               5024279               3    
 2 AK    Alaska               Trump                733391               3.7  
 3 AZ    Arizona              Biden               7151502               3.5  
 4 AR    Arkansas             Trump               3011524               2.8  
 5 CA    California           Biden              39538223              18.4  
 6 CO    Colorado             Biden               5773714               3.2  
 7 CT    Connecticut          Biden               3605944               2.5  
 8 DE    Delaware             Biden                989948               0.792
 9 DC    District Of Columbia Biden                689545               1.1  
10 FL    Florida              Trump              21538187               8.2  
# ℹ 41 more rows
…
